Get Started with glyfun • glyfun
…
#> ── Normalizing data again ──
#> 
#> ℹ No QC samples found. Using default normalization method based on experiment type.
#> ℹ Experiment type is "glycoproteomics". Using `normalize_median()`.
#> ✔ Normalization completed.
#> 
#> ── Correcting batch effects ──
#> 
#> ℹ Batch column  not found in sample_info. Skipping batch correction.
#> ✔ Batch correction completed.
dea_res <- gly_limma(exp)
#> ℹ Ref Group: "H"
#> ℹ Test Group: "C"
get_tidy_result(dea_res)
#> # A tibble: 3,979 × 14
#>    variable       protein glycan_composition glycan_structure protein_site gene 
#>    <chr>          <chr>   <comp>             <struct>                <int> <chr>
#>  1 P08185-176-He… P08185  Hex(5)HexNAc(4)Ne… NeuAc(??-?)Hex(…          176 SERP…
#>  2 P04196-344-He… P04196  Hex(5)HexNAc(4)Ne… NeuAc(??-?)Hex(…          344 HRG  
#>  3 P04196-344-He… P04196  Hex(5)HexNAc(4)    Hex(??-?)HexNAc…          344 HRG  
#>  4 P04196-344-He… P04196  Hex(5)HexNAc(4)Ne… NeuAc(??-?)Hex(…          344 HRG  
#>  5 P10909-291-He… P10909  Hex(6)HexNAc(5)    Hex(??-?)HexNAc…          291 CLU  
#>  6 P04196-344-He… P04196  Hex(5)HexNAc(4)Ne… NeuAc(??-?)Hex(…          344 HRG  
#>  7 P04196-345-He… P04196  Hex(5)HexNAc(4)    Hex(??-?)HexNAc…          345 HRG  
#>  8 P04196-344-He… P04196  Hex(5)HexNAc(4)dH… dHex(??-?)Hex(?…          344 HRG  
#>  9 P04196-344-He… P04196  Hex(4)HexNAc(3)    Hex(??-?)HexNAc…          344 HRG  
#> 10 P04196-344-He… P04196  Hex(4)HexNAc(4)Ne… NeuAc(??-?)Hex(…          344 HRG  
#> # ℹ 3,969 more rows
#> # ℹ 8 more variables: log2fc <dbl>, AveExpr <dbl>, t <dbl>, p_val <dbl>,
#> #   p_adj <dbl>, b <dbl>, ref_group <chr>, test_group <chr>
…
